{
    "content": [
        {
            "id": 1,
            "numManifeste": "202210134BEANR",
            "numConnaissement": "S322881430",
            "numLot": 1,
            "numeroConteneur": "NA",
            "numEscale": "202210134",
            "etatChargementManifeste": 0,
            "etatChargementPointe": 0,
            "nbrColisManifeste": 1,
            "nbrColisPointe": 1,
            "poidsManifeste": 1.588,
            "poidsPointe": 1.588,
            "poidsUnit": 1.59,
            "codeMarchandise": "09310 ",
            "dimensionPointe": "NA",
            "dimensionManifeste": "Na",
            "nature": "USED VOLKSWAGEN TIGUAN DIMS L175 W71 H66 Model Year 2012                                                                                                                            ",
            "direction": "I",
            "typeManutention": "E",
            "dateDebut": 2.0221129E7,
            "heureDebut": 2205.0,
            "dateFin": 2.022113E7,
            "heureFin": 1655.0,
            "codeTarif": "143",
            "codePrestation": 70903.0,
            "labelle": " 1,5 < Veh < =3",
            "navireName": "GRANDE DAKAR",
            "nomClient": "GLOBE MARINE",
            "codeClient": "001112",
            "firstName": null,
            "lastName": null,
            "userName": null
        },
        {
            "id": 2,
            "numManifeste": "202210134BEANR",
            "numConnaissement": "S323007596      ",
            "numLot": 1,
            "numeroConteneur": "NA",
            "numEscale": "202210134",
            "etatChargementManifeste": 0,
            "etatChargementPointe": 0,
            "nbrColisManifeste": 1,
            "nbrColisPointe": 1,
            "poidsManifeste": 2.13,
            "poidsPointe": 2.13,
            "poidsUnit": 2.13,
            "codeMarchandise": "09310 ",
            "dimensionPointe": "NA",
            "dimensionManifeste": "Na",
            "nature": "USED MERCEDES CL55 Model Year 2002                                                                                                                                                  ",
            "direction": "I",
            "typeManutention": "E",
            "dateDebut": 2.0221129E7,
            "heureDebut": 2205.0,
            "dateFin": 2.022113E7,
            "heureFin": 1655.0,
            "codeTarif": "143",
            "codePrestation": 70903.0,
            "labelle": " 1,5 < Veh < =3",
            "navireName": "GRANDE DAKAR",
            "nomClient": "GLOBE MARINE",
            "codeClient": "001112",
            "firstName": null,
            "lastName": null,
            "userName": null
        }
    ],
    "pageable": {
        "sort": {
            "sorted": false,
            "unsorted": true,
            "empty": true
        },
        "pageNumber": 0,
        "pageSize": 5,
        "offset": 0,
        "paged": true,
        "unpaged": false
    },
    "totalPages": 14,
    "totalElements": 68,
    "last": false,
    "numberOfElements": 5,
    "size": 5,
    "number": 0,
    "sort": {
        "sorted": false,
        "unsorted": true,
        "empty": true
    },
    "first": true,
    "empty": false
}
